%YAML 1.1
%TAG !u! tag:unity3d.com,2011:
--- !u!1001 &100100000
Prefab:
  m_ObjectHideFlags: 1
  serializedVersion: 2
  m_Modification:
    m_TransformParent: {fileID: 0}
    m_Modifications: []
    m_RemovedComponents: []
  m_SourcePrefab: {fileID: 0}
  m_RootGameObject: {fileID: 1713864153799304}
  m_IsPrefabAsset: 1
--- !u!1 &1258690469794840
GameObject:
  m_ObjectHideFlags: 0
  m_CorrespondingSourceObject: {fileID: 0}
  m_PrefabInternal: {fileID: 100100000}
  serializedVersion: 6
  m_Component:
  - component: {fileID: 4472585315927972}
  - component: {fileID: 8195094280286715634}
  - component: {fileID: 3664157346279734004}
  m_Layer: 31
  m_Name: Layer1
  m_TagString: Untagged
  m_Icon: {fileID: 0}
  m_NavMeshLayer: 0
  m_StaticEditorFlags: 0
  m_IsActive: 1
--- !u!1 &1713864153799304
GameObject:
  m_ObjectHideFlags: 0
  m_CorrespondingSourceObject: {fileID: 0}
  m_PrefabInternal: {fileID: 100100000}
  serializedVersion: 6
  m_Component:
  - component: {fileID: 4383336146064964}
  - component: {fileID: 2569400265311681030}
  m_Layer: 31
  m_Name: Tile1
  m_TagString: Untagged
  m_Icon: {fileID: 0}
  m_NavMeshLayer: 0
  m_StaticEditorFlags: 0
  m_IsActive: 1
--- !u!4 &4383336146064964
Transform:
  m_ObjectHideFlags: 1
  m_CorrespondingSourceObject: {fileID: 0}
  m_PrefabInternal: {fileID: 100100000}
  m_GameObject: {fileID: 1713864153799304}
  m_LocalRotation: {x: 0, y: 0, z: 0, w: 1}
  m_LocalPosition: {x: 0, y: 0, z: 0}
  m_LocalScale: {x: 1, y: 1, z: 1}
  m_Children:
  - {fileID: 4472585315927972}
  m_Father: {fileID: 0}
  m_RootOrder: 0
  m_LocalEulerAnglesHint: {x: 0, y: 0, z: 0}
--- !u!4 &4472585315927972
Transform:
  m_ObjectHideFlags: 1
  m_CorrespondingSourceObject: {fileID: 0}
  m_PrefabInternal: {fileID: 100100000}
  m_GameObject: {fileID: 1258690469794840}
  m_LocalRotation: {x: -0, y: -0, z: -0, w: 1}
  m_LocalPosition: {x: 0, y: 0, z: 0}
  m_LocalScale: {x: 1, y: 1, z: 1}
  m_Children: []
  m_Father: {fileID: 4383336146064964}
  m_RootOrder: 0
  m_LocalEulerAnglesHint: {x: 0, y: 0, z: 0}
--- !u!114 &114660394467208250
MonoBehaviour:
  m_ObjectHideFlags: 0
  m_CorrespondingSourceObject: {fileID: 0}
  m_PrefabInternal: {fileID: 0}
  m_GameObject: {fileID: 0}
  m_Enabled: 1
  m_EditorHideFlags: 1
  m_Script: {fileID: 12395, guid: 0000000000000000e000000000000000, type: 0}
  m_Name: Palette Settings
  m_EditorClassIdentifier: 
  cellSizing: 0
--- !u!156049354 &2569400265311681030
Grid:
  m_ObjectHideFlags: 1
  m_CorrespondingSourceObject: {fileID: 0}
  m_PrefabInternal: {fileID: 100100000}
  m_GameObject: {fileID: 1713864153799304}
  m_Enabled: 1
  m_CellSize: {x: 0.32, y: 0.32, z: 0}
  m_CellGap: {x: 0, y: 0, z: 0}
  m_CellLayout: 0
  m_CellSwizzle: 0
--- !u!483693784 &3664157346279734004
TilemapRenderer:
  m_ObjectHideFlags: 1
  m_CorrespondingSourceObject: {fileID: 0}
  m_PrefabInternal: {fileID: 100100000}
  m_GameObject: {fileID: 1258690469794840}
  m_Enabled: 0
  m_CastShadows: 0
  m_ReceiveShadows: 0
  m_DynamicOccludee: 0
  m_MotionVectors: 1
  m_LightProbeUsage: 0
  m_ReflectionProbeUsage: 0
  m_RenderingLayerMask: 4294967295
  m_Materials:
  - {fileID: 10754, guid: 0000000000000000f000000000000000, type: 0}
  m_StaticBatchInfo:
    firstSubMesh: 0
    subMeshCount: 0
  m_StaticBatchRoot: {fileID: 0}
  m_ProbeAnchor: {fileID: 0}
  m_LightProbeVolumeOverride: {fileID: 0}
  m_ScaleInLightmap: 1
  m_PreserveUVs: 0
  m_IgnoreNormalsForChartDetection: 0
  m_ImportantGI: 0
  m_StitchLightmapSeams: 0
  m_SelectedEditorRenderState: 0
  m_MinimumChartSize: 4
  m_AutoUVMaxDistance: 0.5
  m_AutoUVMaxAngle: 89
  m_LightmapParameters: {fileID: 0}
  m_SortingLayerID: 0
  m_SortingLayer: 0
  m_SortingOrder: 0
  m_ChunkSize: {x: 32, y: 32, z: 32}
  m_ChunkCullingBounds: {x: 0, y: 0, z: 0}
  m_MaxChunkCount: 16
  m_MaxFrameAge: 16
  m_SortOrder: 0
  m_DetectChunkCullingBounds: 0
  m_MaskInteraction: 0
--- !u!1839735485 &8195094280286715634
Tilemap:
  m_ObjectHideFlags: 1
  m_CorrespondingSourceObject: {fileID: 0}
  m_PrefabInternal: {fileID: 100100000}
  m_GameObject: {fileID: 1258690469794840}
  m_Enabled: 1
  m_Tiles:
  - first: {x: -3, y: -3, z: 0}
    second:
      m_TileIndex: 9
      m_TileSpriteIndex: 8
      m_TileMatrixIndex: 0
      m_TileColorIndex: 0
      m_ObjectToInstantiate: {fileID: 0}
      m_TileFlags: 1
      m_ColliderType: 1
  - first: {x: -2, y: -3, z: 0}
    second:
      m_TileIndex: 17
      m_TileSpriteIndex: 9
      m_TileMatrixIndex: 0
      m_TileColorIndex: 0
      m_ObjectToInstantiate: {fileID: 0}
      m_TileFlags: 1
      m_ColliderType: 1
  - first: {x: -1, y: -3, z: 0}
    second:
      m_TileIndex: 7
      m_TileSpriteIndex: 17
      m_TileMatrixIndex: 0
      m_TileColorIndex: 0
      m_ObjectToInstantiate: {fileID: 0}
      m_TileFlags: 1
      m_ColliderType: 1
  - first: {x: 3, y: -3, z: 0}
    second:
      m_TileIndex: 21
      m_TileSpriteIndex: 21
      m_TileMatrixIndex: 0
      m_TileColorIndex: 0
      m_ObjectToInstantiate: {fileID: 0}
      m_TileFlags: 1
      m_ColliderType: 1
  - first: {x: 4, y: -3, z: 0}
    second:
      m_TileIndex: 20
      m_TileSpriteIndex: 20
      m_TileMatrixIndex: 0
      m_TileColorIndex: 0
      m_ObjectToInstantiate: {fileID: 0}
      m_TileFlags: 1
      m_ColliderType: 1
  - first: {x: 5, y: -3, z: 0}
    second:
      m_TileIndex: 16
      m_TileSpriteIndex: 15
      m_TileMatrixIndex: 0
      m_TileColorIndex: 0
      m_ObjectToInstantiate: {fileID: 0}
      m_TileFlags: 1
      m_ColliderType: 1
  - first: {x: -3, y: -2, z: 0}
    second:
      m_TileIndex: 14
      m_TileSpriteIndex: 16
      m_TileMatrixIndex: 0
      m_TileColorIndex: 0
      m_ObjectToInstantiate: {fileID: 0}
      m_TileFlags: 1
      m_ColliderType: 1
  - first: {x: -2, y: -2, z: 0}
    second:
      m_TileIndex: 13
      m_TileSpriteIndex: 14
      m_TileMatrixIndex: 0
      m_TileColorIndex: 0
      m_ObjectToInstantiate: {fileID: 0}
      m_TileFlags: 1
      m_ColliderType: 1
  - first: {x: -1, y: -2, z: 0}
    second:
      m_TileIndex: 12
      m_TileSpriteIndex: 13
      m_TileMatrixIndex: 0
      m_TileColorIndex: 0
      m_ObjectToInstantiate: {fileID: 0}
      m_TileFlags: 1
      m_ColliderType: 1
  - first: {x: 0, y: -2, z: 0}
    second:
      m_TileIndex: 10
      m_TileSpriteIndex: 22
      m_TileMatrixIndex: 0
      m_TileColorIndex: 0
      m_ObjectToInstantiate: {fileID: 0}
      m_TileFlags: 1
      m_ColliderType: 1
  - first: {x: 1, y: -2, z: 0}
    second:
      m_TileIndex: 18
      m_TileSpriteIndex: 18
      m_TileMatrixIndex: 0
      m_TileColorIndex: 0
      m_ObjectToInstantiate: {fileID: 0}
      m_TileFlags: 1
      m_ColliderType: 1
  - first: {x: 3, y: -2, z: 0}
    second:
      m_TileIndex: 15
      m_TileSpriteIndex: 12
      m_TileMatrixIndex: 0
      m_TileColorIndex: 0
      m_ObjectToInstantiate: {fileID: 0}
      m_TileFlags: 1
      m_ColliderType: 1
  - first: {x: 4, y: -2, z: 0}
    second:
      m_TileIndex: 11
      m_TileSpriteIndex: 11
      m_TileMatrixIndex: 0
      m_TileColorIndex: 0
      m_ObjectToInstantiate: {fileID: 0}
      m_TileFlags: 1
      m_ColliderType: 1
  - first: {x: 5, y: -2, z: 0}
    second:
      m_TileIndex: 6
      m_TileSpriteIndex: 6
      m_TileMatrixIndex: 0
      m_TileColorIndex: 0
      m_ObjectToInstantiate: {fileID: 0}
      m_TileFlags: 1
      m_ColliderType: 1
  - first: {x: -3, y: -1, z: 0}
    second:
      m_TileIndex: 8
      m_TileSpriteIndex: 7
      m_TileMatrixIndex: 0
      m_TileColorIndex: 0
      m_ObjectToInstantiate: {fileID: 0}
      m_TileFlags: 1
      m_ColliderType: 1
  - first: {x: -2, y: -1, z: 0}
    second:
      m_TileIndex: 1
      m_TileSpriteIndex: 1
      m_TileMatrixIndex: 0
      m_TileColorIndex: 0
      m_ObjectToInstantiate: {fileID: 0}
      m_TileFlags: 1
      m_ColliderType: 1
  - first: {x: -1, y: -1, z: 0}
    second:
      m_TileIndex: 22
      m_TileSpriteIndex: 10
      m_TileMatrixIndex: 0
      m_TileColorIndex: 0
      m_ObjectToInstantiate: {fileID: 0}
      m_TileFlags: 1
      m_ColliderType: 1
  - first: {x: 0, y: -1, z: 0}
    second:
      m_TileIndex: 19
      m_TileSpriteIndex: 19
      m_TileMatrixIndex: 0
      m_TileColorIndex: 0
      m_ObjectToInstantiate: {fileID: 0}
      m_TileFlags: 1
      m_ColliderType: 1
  - first: {x: 1, y: -1, z: 0}
    second:
      m_TileIndex: 4
      m_TileSpriteIndex: 4
      m_TileMatrixIndex: 0
      m_TileColorIndex: 0
      m_ObjectToInstantiate: {fileID: 0}
      m_TileFlags: 1
      m_ColliderType: 1
  - first: {x: 2, y: -1, z: 0}
    second:
      m_TileIndex: 0
      m_TileSpriteIndex: 0
      m_TileMatrixIndex: 0
      m_TileColorIndex: 0
      m_ObjectToInstantiate: {fileID: 0}
      m_TileFlags: 1
      m_ColliderType: 1
  - first: {x: 3, y: -1, z: 0}
    second:
      m_TileIndex: 5
      m_TileSpriteIndex: 5
      m_TileMatrixIndex: 0
      m_TileColorIndex: 0
      m_ObjectToInstantiate: {fileID: 0}
      m_TileFlags: 1
      m_ColliderType: 1
  - first: {x: 4, y: -1, z: 0}
    second:
      m_TileIndex: 3
      m_TileSpriteIndex: 3
      m_TileMatrixIndex: 0
      m_TileColorIndex: 0
      m_ObjectToInstantiate: {fileID: 0}
      m_TileFlags: 1
      m_ColliderType: 1
  - first: {x: 5, y: -1, z: 0}
    second:
      m_TileIndex: 2
      m_TileSpriteIndex: 2
      m_TileMatrixIndex: 0
      m_TileColorIndex: 0
      m_ObjectToInstantiate: {fileID: 0}
      m_TileFlags: 1
      m_ColliderType: 1
  m_AnimatedTiles: {}
  m_TileAssetArray:
  - m_RefCount: 1
    m_Data: {fileID: 11400000, guid: 6bd2735b58df31743bcf87d2f51e93ce, type: 2}
  - m_RefCount: 1
    m_Data: {fileID: 11400000, guid: b855bd7e79be7a145ab110e4588b02d2, type: 2}
  - m_RefCount: 1
    m_Data: {fileID: 11400000, guid: b517b68d731ee7349bc79522781c804b, type: 2}
  - m_RefCount: 1
    m_Data: {fileID: 11400000, guid: bc07137c5bd5f0e4780b0ed8de58a7d0, type: 2}
  - m_RefCount: 1
    m_Data: {fileID: 11400000, guid: 1edfcb76de5cfc54a8a4acb038f1cc2c, type: 2}
  - m_RefCount: 1
    m_Data: {fileID: 11400000, guid: 88df51a99d3744d4684e19ccd29bcfb8, type: 2}
  - m_RefCount: 1
    m_Data: {fileID: 11400000, guid: 7995448df42984340a61d2bbd06e6267, type: 2}
  - m_RefCount: 1
    m_Data: {fileID: 11400000, guid: ca1b827b273e38345ad6705c1a8c45a4, type: 2}
  - m_RefCount: 1
    m_Data: {fileID: 11400000, guid: 71faf036b1a4a8e49a1f0f961a1c6127, type: 2}
  - m_RefCount: 1
    m_Data: {fileID: 11400000, guid: 6fad5a54510d03e4a831e941cfd255b2, type: 2}
  - m_RefCount: 1
    m_Data: {fileID: 11400000, guid: 4ff7c9cc7a346be4a823d01999ba784d, type: 2}
  - m_RefCount: 1
    m_Data: {fileID: 11400000, guid: ee3b4ae595040cd4d800eff4c334a729, type: 2}
  - m_RefCount: 1
    m_Data: {fileID: 11400000, guid: 4af6fe8ab8311204f85e38555d9cab3c, type: 2}
  - m_RefCount: 1
    m_Data: {fileID: 11400000, guid: fd470dc38468bdf418fc1766384e6d41, type: 2}
  - m_RefCount: 1
    m_Data: {fileID: 11400000, guid: 6202868e82904da47b6a12ab019e7fcc, type: 2}
  - m_RefCount: 1
    m_Data: {fileID: 11400000, guid: 0e264a6f3a66c5f408f484f331a4b847, type: 2}
  - m_RefCount: 1
    m_Data: {fileID: 11400000, guid: 099a4ac2bdcf52144b0d3999e0e5cf62, type: 2}
  - m_RefCount: 1
    m_Data: {fileID: 11400000, guid: 75d153b49a388084480f54f14afc0993, type: 2}
  - m_RefCount: 1
    m_Data: {fileID: 11400000, guid: aacea05cf6c606f4e84907e4dd744607, type: 2}
  - m_RefCount: 1
    m_Data: {fileID: 11400000, guid: 659e1f524ad55f04797624aef4a3f832, type: 2}
  - m_RefCount: 1
    m_Data: {fileID: 11400000, guid: ef1fd6bcf527ba84fb408b65d044d011, type: 2}
  - m_RefCount: 1
    m_Data: {fileID: 11400000, guid: db362a9a557741543a38c88ca7134cf7, type: 2}
  - m_RefCount: 1
    m_Data: {fileID: 11400000, guid: 1b7f646efd9729346869c8c43b8c7b36, type: 2}
  m_TileSpriteArray:
  - m_RefCount: 1
    m_Data: {fileID: 21300000, guid: 02141b549c0d0fc4c81ea5916cf10387, type: 3}
  - m_RefCount: 1
    m_Data: {fileID: 21300000, guid: f3b6a752e99abfa44b9fdf5c593d4c94, type: 3}
  - m_RefCount: 1
    m_Data: {fileID: 21300000, guid: aaeb17d6c52c82e45a41a26a80db3379, type: 3}
  - m_RefCount: 1
    m_Data: {fileID: 21300000, guid: e5b06ae1e4593314fbdbc51aee8b00cb, type: 3}
  - m_RefCount: 1
    m_Data: {fileID: 21300000, guid: 95779d4dfa3b14140911074798646ae5, type: 3}
  - m_RefCount: 1
    m_Data: {fileID: 21300000, guid: 3c52fbb9cd62a8e4c8ffdbd4b9be6064, type: 3}
  - m_RefCount: 1
    m_Data: {fileID: 21300000, guid: df1bd03187a2633468ba36b3d140637c, type: 3}
  - m_RefCount: 1
    m_Data: {fileID: 21300000, guid: 9f3850dfeadef2340b2586a67da3af9f, type: 3}
  - m_RefCount: 1
    m_Data: {fileID: 21300000, guid: 5ef37c19733a4c54e93315717b6478b2, type: 3}
  - m_RefCount: 1
    m_Data: {fileID: 21300000, guid: 0d716605022daed4eb1074184f381728, type: 3}
  - m_RefCount: 1
    m_Data: {fileID: 21300000, guid: d4b020aad191a6641bdd576ba89c1019, type: 3}
  - m_RefCount: 1
    m_Data: {fileID: 21300000, guid: 077ff0a8d589e8d4ebe0cc9b3e9a6602, type: 3}
  - m_RefCount: 1
    m_Data: {fileID: 21300000, guid: 646bf42793d92cd4890819507e5d7ebf, type: 3}
  - m_RefCount: 1
    m_Data: {fileID: 21300000, guid: fb7dd1352ca387049b2b244e4e4b540e, type: 3}
  - m_RefCount: 1
    m_Data: {fileID: 21300000, guid: d0d0e9f5b1c160c4ea4d23c7825bcb3c, type: 3}
  - m_RefCount: 1
    m_Data: {fileID: 21300000, guid: 2b601cf994ac4604b913cfba318e8f96, type: 3}
  - m_RefCount: 1
    m_Data: {fileID: 21300000, guid: 6ff615959bb849245a622534f081963c, type: 3}
  - m_RefCount: 1
    m_Data: {fileID: 21300000, guid: 8256bb39375312544bef1f7006b304a8, type: 3}
  - m_RefCount: 1
    m_Data: {fileID: 21300000, guid: 84cb07e7b2710f340b5b1568871e3426, type: 3}
  - m_RefCount: 1
    m_Data: {fileID: 21300000, guid: 0e1e4dc4a0efe7d468e57e80f73ffb76, type: 3}
  - m_RefCount: 1
    m_Data: {fileID: 21300000, guid: 4f4f5dff530674f4fbbf03e55ae5f9c5, type: 3}
  - m_RefCount: 1
    m_Data: {fileID: 21300000, guid: 9323b108022f70d469de70ff0b789a0b, type: 3}
  - m_RefCount: 1
    m_Data: {fileID: 21300000, guid: 304a9222ff52c264d97016247ae1ad04, type: 3}
  m_TileMatrixArray:
  - m_RefCount: 23
    m_Data:
      e00: 1
      e01: 0
      e02: 0
      e03: 0
      e10: 0
      e11: 1
      e12: 0
      e13: 0
      e20: 0
      e21: 0
      e22: 1
      e23: 0
      e30: 0
      e31: 0
      e32: 0
      e33: 1
  m_TileColorArray:
  - m_RefCount: 23
    m_Data: {r: 1, g: 1, b: 1, a: 1}
  m_AnimationFrameRate: 1
  m_Color: {r: 1, g: 1, b: 1, a: 1}
  m_Origin: {x: -4, y: -4, z: 0}
  m_Size: {x: 13, y: 5, z: 1}
  m_TileAnchor: {x: 0.5, y: 0.5, z: 0}
  m_TileOrientation: 0
  m_TileOrientationMatrix:
    e00: 1
    e01: 0
    e02: 0
    e03: 0
    e10: 0
    e11: 1
    e12: 0
    e13: 0
    e20: 0
    e21: 0
    e22: 1
    e23: 0
    e30: 0
    e31: 0
    e32: 0
    e33: 1
