%YAML 1.1
%TAG !u! tag:unity3d.com,2011:
--- !u!74 &7400000
AnimationClip:
  m_ObjectHideFlags: 0
  m_CorrespondingSourceObject: {fileID: 0}
  m_PrefabInternal: {fileID: 0}
  m_Name: Gargoyle_Death
  serializedVersion: 6
  m_Legacy: 0
  m_Compressed: 0
  m_UseHighQualityCurve: 1
  m_RotationCurves: []
  m_CompressedRotationCurves: []
  m_EulerCurves: []
  m_PositionCurves: []
  m_ScaleCurves: []
  m_FloatCurves: []
  m_PPtrCurves:
  - curve:
    - time: 0
      value: {fileID: 21300000, guid: 435863289521eed448a5c018fcb6ced8, type: 3}
    - time: 0.083333336
      value: {fileID: 21300000, guid: eae06e30ee40aad40bf968223c9a6685, type: 3}
    - time: 0.16666667
      value: {fileID: 21300000, guid: 533e9e37429a1d142a2a96b8bd58c48c, type: 3}
    - time: 0.25
      value: {fileID: 21300000, guid: 492170aa28ccc4043ad52d71c4964315, type: 3}
    - time: 0.33333334
      value: {fileID: 21300000, guid: 3a7e3f8b59ffb424cb9dbb9038a5e153, type: 3}
    - time: 0.41666666
      value: {fileID: 21300000, guid: b4bf703149be8ff44a9886101ca89a78, type: 3}
    - time: 0.5
      value: {fileID: 21300000, guid: 6302a42d97f26b246b83afe935d6eb21, type: 3}
    - time: 0.5833333
      value: {fileID: 21300000, guid: 6d4161e5c4165574dab694df47f1e028, type: 3}
    attribute: m_Sprite
    path: 
    classID: 212
    script: {fileID: 0}
  m_SampleRate: 12
  m_WrapMode: 0
  m_Bounds:
    m_Center: {x: 0, y: 0, z: 0}
    m_Extent: {x: 0, y: 0, z: 0}
  m_ClipBindingConstant:
    genericBindings:
    - serializedVersion: 2
      path: 0
      attribute: 0
      script: {fileID: 0}
      typeID: 212
      customType: 23
      isPPtrCurve: 1
    pptrCurveMapping:
    - {fileID: 21300000, guid: 435863289521eed448a5c018fcb6ced8, type: 3}
    - {fileID: 21300000, guid: eae06e30ee40aad40bf968223c9a6685, type: 3}
    - {fileID: 21300000, guid: 533e9e37429a1d142a2a96b8bd58c48c, type: 3}
    - {fileID: 21300000, guid: 492170aa28ccc4043ad52d71c4964315, type: 3}
    - {fileID: 21300000, guid: 3a7e3f8b59ffb424cb9dbb9038a5e153, type: 3}
    - {fileID: 21300000, guid: b4bf703149be8ff44a9886101ca89a78, type: 3}
    - {fileID: 21300000, guid: 6302a42d97f26b246b83afe935d6eb21, type: 3}
    - {fileID: 21300000, guid: 6d4161e5c4165574dab694df47f1e028, type: 3}
  m_AnimationClipSettings:
    serializedVersion: 2
    m_AdditiveReferencePoseClip: {fileID: 0}
    m_AdditiveReferencePoseTime: 0
    m_StartTime: 0
    m_StopTime: 0.6666666
    m_OrientationOffsetY: 0
    m_Level: 0
    m_CycleOffset: 0
    m_HasAdditiveReferencePose: 0
    m_LoopTime: 1
    m_LoopBlend: 0
    m_LoopBlendOrientation: 0
    m_LoopBlendPositionY: 0
    m_LoopBlendPositionXZ: 0
    m_KeepOriginalOrientation: 0
    m_KeepOriginalPositionY: 1
    m_KeepOriginalPositionXZ: 0
    m_HeightFromFeet: 0
    m_Mirror: 0
  m_EditorCurves: []
  m_EulerEditorCurves: []
  m_HasGenericRootTransform: 0
  m_HasMotionFloatCurves: 0
  m_GenerateMotionCurves: 0
  m_Events:
  - time: 0.5833333
    functionName: Dead
    data: 
    objectReferenceParameter: {fileID: 0}
    floatParameter: 0
    intParameter: 0
    messageOptions: 0
