%YAML 1.1
%TAG !u! tag:unity3d.com,2011:
--- !u!74 &7400000
AnimationClip:
  m_ObjectHideFlags: 0
  m_CorrespondingSourceObject: {fileID: 0}
  m_PrefabInternal: {fileID: 0}
  m_Name: M_Goblin_Run
  serializedVersion: 6
  m_Legacy: 0
  m_Compressed: 0
  m_UseHighQualityCurve: 1
  m_RotationCurves: []
  m_CompressedRotationCurves: []
  m_EulerCurves: []
  m_PositionCurves: []
  m_ScaleCurves: []
  m_FloatCurves: []
  m_PPtrCurves:
  - curve:
    - time: 0
      value: {fileID: 21300000, guid: f0b682d798aad3b4595e5ce78bc0aba0, type: 3}
    - time: 0.083333336
      value: {fileID: 21300000, guid: 641471b9857812f41944fe535d07e455, type: 3}
    - time: 0.16666667
      value: {fileID: 21300000, guid: 6a000cabb21bbc34ebfac1900fa632b7, type: 3}
    - time: 0.25
      value: {fileID: 21300000, guid: 18af131146f32ee4e9c460c3daabec53, type: 3}
    - time: 0.33333334
      value: {fileID: 21300000, guid: a4a4b796a5c006e4bb9c168647458b9a, type: 3}
    - time: 0.41666666
      value: {fileID: 21300000, guid: 486d117685c63374ba7c4785419dcae6, type: 3}
    - time: 0.5
      value: {fileID: 21300000, guid: 6f4c679be8c38f241acaeaaf6fa0a5f3, type: 3}
    - time: 0.5833333
      value: {fileID: 21300000, guid: c0b20e2d3b85ee3428fc48d895b9823f, type: 3}
    attribute: m_Sprite
    path: 
    classID: 212
    script: {fileID: 0}
  m_SampleRate: 12
  m_WrapMode: 0
  m_Bounds:
    m_Center: {x: 0, y: 0, z: 0}
    m_Extent: {x: 0, y: 0, z: 0}
  m_ClipBindingConstant:
    genericBindings:
    - serializedVersion: 2
      path: 0
      attribute: 0
      script: {fileID: 0}
      typeID: 212
      customType: 23
      isPPtrCurve: 1
    pptrCurveMapping:
    - {fileID: 21300000, guid: f0b682d798aad3b4595e5ce78bc0aba0, type: 3}
    - {fileID: 21300000, guid: 641471b9857812f41944fe535d07e455, type: 3}
    - {fileID: 21300000, guid: 6a000cabb21bbc34ebfac1900fa632b7, type: 3}
    - {fileID: 21300000, guid: 18af131146f32ee4e9c460c3daabec53, type: 3}
    - {fileID: 21300000, guid: a4a4b796a5c006e4bb9c168647458b9a, type: 3}
    - {fileID: 21300000, guid: 486d117685c63374ba7c4785419dcae6, type: 3}
    - {fileID: 21300000, guid: 6f4c679be8c38f241acaeaaf6fa0a5f3, type: 3}
    - {fileID: 21300000, guid: c0b20e2d3b85ee3428fc48d895b9823f, type: 3}
  m_AnimationClipSettings:
    serializedVersion: 2
    m_AdditiveReferencePoseClip: {fileID: 0}
    m_AdditiveReferencePoseTime: 0
    m_StartTime: 0
    m_StopTime: 0.6666666
    m_OrientationOffsetY: 0
    m_Level: 0
    m_CycleOffset: 0
    m_HasAdditiveReferencePose: 0
    m_LoopTime: 1
    m_LoopBlend: 0
    m_LoopBlendOrientation: 0
    m_LoopBlendPositionY: 0
    m_LoopBlendPositionXZ: 0
    m_KeepOriginalOrientation: 0
    m_KeepOriginalPositionY: 1
    m_KeepOriginalPositionXZ: 0
    m_HeightFromFeet: 0
    m_Mirror: 0
  m_EditorCurves: []
  m_EulerEditorCurves: []
  m_HasGenericRootTransform: 0
  m_HasMotionFloatCurves: 0
  m_GenerateMotionCurves: 0
  m_Events: []
