%YAML 1.1
%TAG !u! tag:unity3d.com,2011:
--- !u!74 &7400000
AnimationClip:
  m_ObjectHideFlags: 0
  m_CorrespondingSourceObject: {fileID: 0}
  m_PrefabInternal: {fileID: 0}
  m_Name: Goblin_Walk
  serializedVersion: 6
  m_Legacy: 0
  m_Compressed: 0
  m_UseHighQualityCurve: 1
  m_RotationCurves: []
  m_CompressedRotationCurves: []
  m_EulerCurves: []
  m_PositionCurves: []
  m_ScaleCurves: []
  m_FloatCurves: []
  m_PPtrCurves:
  - curve:
    - time: 0
      value: {fileID: 21300000, guid: 823f99447e96c2b4c9e0bedfb62a472d, type: 3}
    - time: 0.083333336
      value: {fileID: 21300000, guid: 4bd6e768ad576204e835277e600b8dfd, type: 3}
    - time: 0.16666667
      value: {fileID: 21300000, guid: 97313936f1d91074b82625a4eece17dd, type: 3}
    - time: 0.25
      value: {fileID: 21300000, guid: 2a6f6587e851c1e45a054c15ce19d50e, type: 3}
    - time: 0.33333334
      value: {fileID: 21300000, guid: 7a4893802362f244e93a973cb84d6457, type: 3}
    - time: 0.41666666
      value: {fileID: 21300000, guid: 76548adf96c07c94b93b2637ce6781ae, type: 3}
    - time: 0.5
      value: {fileID: 21300000, guid: bc07500b4f16f1b4c8eeaea389ce165a, type: 3}
    - time: 0.5833333
      value: {fileID: 21300000, guid: 364ca898bd9d2f349aadbcd8e52406da, type: 3}
    attribute: m_Sprite
    path: 
    classID: 212
    script: {fileID: 0}
  m_SampleRate: 12
  m_WrapMode: 0
  m_Bounds:
    m_Center: {x: 0, y: 0, z: 0}
    m_Extent: {x: 0, y: 0, z: 0}
  m_ClipBindingConstant:
    genericBindings:
    - serializedVersion: 2
      path: 0
      attribute: 0
      script: {fileID: 0}
      typeID: 212
      customType: 23
      isPPtrCurve: 1
    pptrCurveMapping:
    - {fileID: 21300000, guid: 823f99447e96c2b4c9e0bedfb62a472d, type: 3}
    - {fileID: 21300000, guid: 4bd6e768ad576204e835277e600b8dfd, type: 3}
    - {fileID: 21300000, guid: 97313936f1d91074b82625a4eece17dd, type: 3}
    - {fileID: 21300000, guid: 2a6f6587e851c1e45a054c15ce19d50e, type: 3}
    - {fileID: 21300000, guid: 7a4893802362f244e93a973cb84d6457, type: 3}
    - {fileID: 21300000, guid: 76548adf96c07c94b93b2637ce6781ae, type: 3}
    - {fileID: 21300000, guid: bc07500b4f16f1b4c8eeaea389ce165a, type: 3}
    - {fileID: 21300000, guid: 364ca898bd9d2f349aadbcd8e52406da, type: 3}
  m_AnimationClipSettings:
    serializedVersion: 2
    m_AdditiveReferencePoseClip: {fileID: 0}
    m_AdditiveReferencePoseTime: 0
    m_StartTime: 0
    m_StopTime: 0.6666666
    m_OrientationOffsetY: 0
    m_Level: 0
    m_CycleOffset: 0
    m_HasAdditiveReferencePose: 0
    m_LoopTime: 1
    m_LoopBlend: 0
    m_LoopBlendOrientation: 0
    m_LoopBlendPositionY: 0
    m_LoopBlendPositionXZ: 0
    m_KeepOriginalOrientation: 0
    m_KeepOriginalPositionY: 1
    m_KeepOriginalPositionXZ: 0
    m_HeightFromFeet: 0
    m_Mirror: 0
  m_EditorCurves: []
  m_EulerEditorCurves: []
  m_HasGenericRootTransform: 0
  m_HasMotionFloatCurves: 0
  m_GenerateMotionCurves: 0
  m_Events: []
